[gd_scene load_steps=3 format=2]

[ext_resource path="res://Scripts/Game.gd" type="Script" id=1]
[ext_resource path="res://Resources/Sprites/board_lvl_1.png" type="Texture" id=2]

[node name="Game" type="Control"]
anchor_right = 1.0
anchor_bottom = 1.0
mouse_filter = 2
script = ExtResource( 1 )
__meta__ = {
"_edit_use_anchors_": false
}

[node name="Board" type="TextureRect" parent="."]
anchor_left = 0.5
anchor_top = 0.5
anchor_right = 0.5
anchor_bottom = 0.5
margin_left = -212.5
margin_top = -226.5
margin_right = 212.5
margin_bottom = 226.5
mouse_filter = 2
texture = ExtResource( 2 )
__meta__ = {
"_edit_use_anchors_": false
}
